EDA
…
The target count shows us that 92% are non defualters. This is high enought that prediction methods would predict that nobody defaults.

This table helps to identify that variables that are most positiviely and negativley correlated. EXT source have the strongest negative correlation with the targe which means the higher the score the lower the default risk. These are very high predictors in this data set. Age(Days birth) has a negative correlation, older people may default less, and age could be a good predictor of default. This table also shows that there is a lot of multicollinearity going on. Some variables that have a very weak correlation are Flag_emp_phone and Days_last_phone_change.

Missing Values

library(corrr)
missing <- train %>% summarise(across(everything(), ~mean(is.na(.)))) %>% pivot_longer(everything(), names_to = "variable", values_to = "missing_pct") %>% arrange(desc(missing_pct))

missing %>% filter(missing_pct > 0.1)

# A tibble: 52 × 2
   variable                 missing_pct
   <chr>                          <dbl>
 1 COMMONAREA_AVG                 0.699
 2 COMMONAREA_MODE                0.699
 3 COMMONAREA_MEDI                0.699
 4 NONLIVINGAPARTMENTS_AVG        0.694
 5 NONLIVINGAPARTMENTS_MODE       0.694
 6 NONLIVINGAPARTMENTS_MEDI       0.694
 7 LIVINGAPARTMENTS_AVG           0.684
 8 LIVINGAPARTMENTS_MODE          0.684
 9 LIVINGAPARTMENTS_MEDI          0.684
10 FLOORSMIN_AVG                  0.678
# ℹ 42 more rows
…
